…
## Part 3: Transform data with dplyr and finding insight the data

### 1. แสดง ค่าความนิยมของหนังสือ (Rating) , ชื่อของหนังสือ (Book_title) , ราคาของหนังสือ (Price) ของหนังสือที่มีค่าความนิยมมากกว่าค่าเฉลี่ยของค่าความนิยมของหนังสือทั้งหมด 

```
dataset$Rating %>% mean() # 4.067417
dataset %>% select(Rating,Book_title,Price) %>% filter(Rating > mean(Rating))
```
Result: ข้อมูล Rating , Book_title , Price ของหนังสือที่มีค่าความนิยม (Rating) มากกว่าค่าเฉลี่ยของค่าความนิยมของหนังสือทั้งหมด 
```
# A tibble: 147 x 3
   Rating Book_title                                                                                            Price
    <dbl> <chr>                                                                                                 <dbl>
 1   4.17 The Elements of Style                                                                                  9.32
 2   4.09 Start with Why: How Great Leaders Inspire Everyone to Take Action                                     14.2 
 3   4.15 Algorithms to Live By: The Computer Science of Human Decisions                                        14.4 
 4   4.62 ZX Spectrum Games Code Club: Twenty fun games to code and learn                                       14.6 
 5   4.1  The Innovators: How a Group of Hackers, Geniuses and Geeks Created the Digital Revolution             17.2 
 6   4.22 Debugging: The 9 Indispensable Rules for Finding Even the Most Elusive Software and Hardware Problems 17.5 
 7   4.21 Help Your Kids with Computer Coding                                                                   18.9 
 8   4.28 The Code Book: The Science of Secrecy from Ancient Egypt to Quantum Cryptography                      19.1 
 9   4.37 Adventures in Minecraft                                                                               21.0 
10   4.25 Coding Games in Scratch                                                                               21.1 
# ... with 137 more rows
```

- หาค่าเฉลี่ยของ ค่าความนิยมของหนังสือ (Rating) ก่อนว่ามีค่าเท่าไหร่ (mean = 4.067417)
- เลือกข้อมูลใน Dataset โดยเอาแค่ Rating , Book_title , Price แล้ว filter ค่า Rating ที่มีค่ามากกว่า 4.067417 หรือ Rating > mean(Rating)

### 2. แสดง ค่าความนิยมของหนังสือ (Rating) , ชื่อของหนังสือ (Book_title) , ราคาของหนังสือ (Price) ของหนังสือที่มีค่าความนิยมมากกว่าค่าเฉลี่ยของค่านิยมของหนังสือทั้งหมดและมีราคาสูงกว่าค่าเฉลี่ยของราคาของหนังสือทั้งหมด

```
dataset$Price %>% mean() # 54.54186
dataset %>% select(Rating,Book_title,Price) %>% filter(Price > mean(Price) & Rating > mean(Rating))
```
Result: ข้อมูล Rating , Book_title , Price ของหนังสือที่มีค่าความนิยม (Rating) มากกว่าค่าเฉลี่ยของค่าความนิยมของหนังสือและมีราคามากกว่าค่าเฉลี่ยของหนังสือทั้งหมด
```
# A tibble: 58 x 3
   Rating Book_title                                                                                          Price
    <dbl> <chr>                                                                                               <dbl>
 1   4.18 Building Microservices: Designing Fine-Grained Systems                                               54.9
 2   4.21 Exceptional C++: 47 Engineering Puzzles, Programming Problems, and Solutions                         56.1
 3   4.25 Reviewing Java                                                                                       56.6
 4   4.35 Microsoft Visual C# Step by Step                                                                     56.6
 5   4.25 Refactoring: Improving the Design of Existing Code                                                   57.2
 6   4.19 Growing Object-Oriented Software, Guided by Tests                                                    57.2
 7   4.24 Modern C++ Design: Generic Programming and Design Patterns Applied                                   58.4
 8   4.46 Structure and Interpretation of Computer Programs (MIT Electrical Engineering and Computer Science)  58.9
 9   4.46 Structure and Interpretation of Computer Programs                                                    58.9
10   4.16 C: A Reference Manual                                                                                60.0
# ... with 48 more rows
```
…
