…
- Function `select()` from package [dplyr](https://dplyr.tidyverse.org/articles/dplyr.html#select-columns-with-select)). It using for select columns

```
#Select()
data %>% select(Country,City,`Product ID`)
```
- Result
```
# A tibble: 9,800 x 3
   Country       City            `Product ID`   
   <chr>         <chr>           <chr>          
 1 United States Henderson       FUR-BO-10001798
 2 United States Henderson       FUR-CH-10000454
 3 United States Los Angeles     OFF-LA-10000240
 4 United States Fort Lauderdale FUR-TA-10000577
 5 United States Fort Lauderdale OFF-ST-10000760
 6 United States Los Angeles     FUR-FU-10001487
 7 United States Los Angeles     OFF-AR-10002833
 8 United States Los Angeles     TEC-PH-10002275
 9 United States Los Angeles     OFF-BI-10003910
10 United States Los Angeles     OFF-AP-10002892
# ... with 9,790 more rows
```
- Function `group_by()` from package [dplyr](https://dplyr.tidyverse.org/reference/group_by.html)). It using for group data
```
#Group_by()
data %>% group_by(`Sub-Category`)
```
- Result
```
# A tibble: 9,800 x 18
# Groups:   Sub-Category [17]
   `Row ID` `Order ID`     `Order Date` `Ship Date` `Ship Mode`    `Customer ID`
      <dbl> <chr>          <chr>        <chr>       <chr>          <chr>        
 1        1 CA-2017-152156 08/11/2017   11/11/2017  Second Class   CG-12520     
 2        2 CA-2017-152156 08/11/2017   11/11/2017  Second Class   CG-12520     
 3        3 CA-2017-138688 12/06/2017   16/06/2017  Second Class   DV-13045     
 4        4 US-2016-108966 11/10/2016   18/10/2016  Standard Class SO-20335     
 5        5 US-2016-108966 11/10/2016   18/10/2016  Standard Class SO-20335     
 6        6 CA-2015-115812 09/06/2015   14/06/2015  Standard Class BH-11710     
 7        7 CA-2015-115812 09/06/2015   14/06/2015  Standard Class BH-11710     
 8        8 CA-2015-115812 09/06/2015   14/06/2015  Standard Class BH-11710     
 9        9 CA-2015-115812 09/06/2015   14/06/2015  Standard Class BH-11710     
10       10 CA-2015-115812 09/06/2015   14/06/2015  Standard Class BH-11710     
# ... with 9,790 more rows, and 12 more variables: Customer Name <chr>,
#   Segment <chr>, Country <chr>, City <chr>, State <chr>, Postal Code <dbl>,
#   Region <chr>, Product ID <chr>, Category <chr>, Sub-Category <chr>,
#   Product Name <chr>, Sales <dbl>
```
…
## Part 3: Transform data with dplyr and finding insight the data

### 1.)Find Customer ID starting with "TB"?

```
#1
data %>% filter(str_detect(`Customer ID`, "^TB"))
```

Result:

```
# A tibble: 131 x 18
   `Row ID` `Order ID`     `Order Date` `Ship Date` `Ship Mode`    `Customer ID`
      <dbl> <chr>          <chr>        <chr>       <chr>          <chr>        
 1       28 US-2016-150630 17/09/2016   21/09/2016  Standard Class TB-21520     
 2       29 US-2016-150630 17/09/2016   21/09/2016  Standard Class TB-21520     
 3       30 US-2016-150630 17/09/2016   21/09/2016  Standard Class TB-21520     
 4       31 US-2016-150630 17/09/2016   21/09/2016  Standard Class TB-21520     
 5       32 US-2016-150630 17/09/2016   21/09/2016  Standard Class TB-21520     
 6       33 US-2016-150630 17/09/2016   21/09/2016  Standard Class TB-21520     
 7       34 US-2016-150630 17/09/2016   21/09/2016  Standard Class TB-21520     
 8       56 CA-2017-111682 17/06/2017   18/06/2017  First Class    TB-21055     
 9       57 CA-2017-111682 17/06/2017   18/06/2017  First Class    TB-21055     
10       58 CA-2017-111682 17/06/2017   18/06/2017  First Class    TB-21055     
# ... with 121 more rows, and 12 more variables: Customer Name <chr>, Segment <chr>,
#   Country <chr>, City <chr>, State <chr>, Postal Code <dbl>, Region <chr>,
#   Product ID <chr>, Category <chr>, Sub-Category <chr>, Product Name <chr>,
#   Sales <dbl>
…
```
#6
  Productship <- data %>%
  select(`Product ID`,`Product Name`,`Order ID`,`Ship Mode`) %>%
  filter(`Ship Mode` == "First Class"|`Ship Mode` == "Second Class")
  
  Productship %>% filter(str_detect(`Order ID`,"^CA"))
  
  Productship
```

Result:

```
# A tibble: 3,403 x 4
   `Product ID`    `Product Name`                                                `Order ID`     `Ship Mode` 
   <chr>           <chr>                                                         <chr>          <chr>       
 1 FUR-BO-10001798 "Bush Somerset Collection Bookcase"                           CA-2017-152156 Second Class
 2 FUR-CH-10000454 "Hon Deluxe Fabric Upholstered Stacking Chairs, Rounded Back" CA-2017-152156 Second Class
 3 OFF-LA-10000240 "Self-Adhesive Address Labels for Typewriters by Universal"   CA-2017-138688 Second Class
 4 OFF-ST-10000107 "Fellowes Super Stor/Drawer"                                  CA-2015-167164 Second Class
 5 OFF-AR-10003056 "Newell 341"                                                  CA-2015-143336 Second Class
 6 TEC-PH-10001949 "Cisco SPA 501G IP Phone"                                     CA-2015-143336 Second Class
 7 OFF-BI-10002215 "Wilson Jones Hanging View Binder, White, 1\""                CA-2015-143336 Second Class
 8 FUR-CH-10002774 "Global Deluxe Stacking Chair, Gray"                          US-2018-156909 Second Class
 9 OFF-BI-10001634 "Wilson Jones Active Use Binders"                             CA-2017-121755 Second Class
10 TEC-AC-10003027 "Imation 8GB Mini TravelDrive USB 2.0 Flash Drive"            CA-2017-121755 Second Class
# ... with 3,393 more rows
```
…
